{
    "/assets/app.js": "/assets/app.js",
    "/assets/custom.scss.liquid": "/assets/custom.scss.liquid",
    "/assets/app.js.map": "/assets/app.js.map",
    "/assets/app.min.js": "/assets/app.min.js"
}
