<?xml version="1.0" encoding="UTF-8"?>
<svg width="24px" height="40px" viewBox="0 0 24 40" version="1.1" xmlns="http://www.w3.org/2000/svg" xmlns:xlink="http://www.w3.org/1999/xlink">
    <!-- Generator: sketchtool 53.2 (72643) - https://sketchapp.com -->
    <title>695B88FD-1861-47A6-B3D9-CC740DCCFEBD</title>
    <desc>Created with sketchtool.</desc>
    <defs>
        <polygon id="path-1" points="0 4.6225 14.9885 20.0005 0 35.3775 4.5065 40 24 20.0005 4.5065 0.0005"></polygon>
    </defs>
    <g id="Layouts" stroke="none" stroke-width="1" fill="none" fill-rule="evenodd">
        <g id="D---Home" transform="translate(-28.000000, -470.000000)">
            <g id="Elements-/-Hero-/-Full-Screen" transform="translate(0.000000, 80.000000)">
                <g id="Icon-/-Arrow-/-Left" transform="translate(20.000000, 390.000000)">
                    <g id="Icon-/-Arrow-/-Right" transform="translate(20.000000, 20.000000) scale(-1, 1) translate(-20.000000, -20.000000) ">
                        <g id="Colour-/-Grey" transform="translate(8.000000, 0.000000)">
                            <mask id="mask-2" fill="white">
                                <use xlink:href="#path-1"></use>
                            </mask>
                            <use id="Mask" fill="#000000" xlink:href="#path-1"></use>
                            <g mask="url(#mask-2)" id="Colour-/-Heavy-Grey">
                                <g transform="translate(-8.000000, 0.000000)">
                                    <g>
                                        <rect id="Rectangle" fill="#282828" x="0" y="0" width="40" height="40"></rect>
                                    </g>
                                </g>
                            </g>
                        </g>
                    </g>
                </g>
            </g>
        </g>
    </g>
</svg>